{
    "BUTTON_DEFAULT_BACKGROUND_COLOR": "#f5f5f5",
    "BUTTON_DEFAULT_FONT_COLOR": "#6c6c6c",
    "BUTTON_PRIMARY_BACKGROUND_COLOR": "#2f2f2f",
    "BUTTON_PRIMARY_FONT_COLOR": "#ffffff",
    "DESIGN_BODY_BACKGROUND_COLOR": "#ffffff",
    "DESIGN_BORDER_COLOR": "#eeeeee",
    "DESIGN_BOX_BACKGROUND_COLOR": "#f5f5f5",
    "DESIGN_FOOTER_BACKGROUND_COLOR": "#ffffff",
    "DESIGN_HEADER_BACKGROUND_COLOR": "#ffffff",
    "DESIGN_NAVIGATION_BACKGROUND_COLOR": "#ffffff",
    "DESIGN_NAVIGATION_FONT_COLOR": "#464646",
    "DESIGN_WRAPPER_BACKGROUND_COLOR": "",
    "DESIGN_IMAGE_BACKGROUND_COLOR": "",
    "FONT_COLOR_HEADLINE": "#333333",
    "FONT_COLOR_LINK": "#4a4a4a",
    "FONT_COLOR_PRIMARY": "#4a4a4a",
    "FONT_FAMILY_BASE": "'Helvetica', 'Arial', sans-serif",
    "FONT_FAMILY_HEADLINE": "'Oswald', sans-serif|https://fonts.googleapis.com/css?family=Oswald:300,700&display=swap",
    "IMAGE_BACKGROUND": "",
    "IMAGE_FAVICON": "",
    "IMAGE_WATERMARK_PLACEMENT": "BOTTOMLEFT",
    "IMAGE_WATERMARK_SIZE": "10",
    "IMAGE_WATERMARK_SOURCE": "",
    "LOGO_COLOR": "#333333",
    "LOGO_SOURCE": {
        "DK_1": "",
        "UK_1": ""
    },
    "LOGO_SOURCE_NEGATIVE": {
        "DK_1": "",
        "UK_1": ""
    },
    "LOGO_TYPE": "TEXT",
    "MODULE_RATING_COLOR": "#ffcc00",
    "PANEL_CALLOUT_COLOR": "#dff1d9",
    "PANEL_DANGER_COLOR": "#ebccd1",
    "PANEL_WARNING_COLOR": "#caeef7",
    "COOKIE_PLACEMENT": "bottom",
    "COOKIE_BACKGROUND_COLOR": "",
    "COOKIE_FONT_COLOR": "#ffffff",
    "COOKIE_BUTTON_BACKGROUND_COLOR": "#2f2f2f",
    "COOKIE_BUTTON_FONT_COLOR": "#ffffff",
    "SETTINGS_SHOW_BREADCRUMB": "true",
    "SETTINGS_SHOW_CART": "true",
    "SETTINGS_SHOW_CONTACT_ADDRESS": "true",
    "SETTINGS_SHOW_CONTACT_BANK_NUMBER": "true",
    "SETTINGS_SHOW_CONTACT_CITY": "true",
    "SETTINGS_SHOW_CONTACT_COUNTRY": "true",
    "SETTINGS_SHOW_CONTACT_EMAIL": "true",
    "SETTINGS_SHOW_CONTACT_FAX": "true",
    "SETTINGS_SHOW_CONTACT_MOBILE": "true",
    "SETTINGS_SHOW_CONTACT_PHONE": "true",
    "SETTINGS_SHOW_CONTACT_TITLE": "true",
    "SETTINGS_SHOW_CONTACT_VAT_NUMBER": "true",
    "SETTINGS_SHOW_CONTACT_ZIPCODE": "true",
    "SETTINGS_SHOW_MY_ACCOUNT": "true",
    "SETTINGS_SHOW_PRINT": "true",
    "SETTINGS_SHOW_SEARCH": "true",
    "SETTINGS_SHOW_SITEMAP": "true",
    "SETTINGS_TYPE_LANGUAGE": "BOTH",
    "MODULEBOX_CART_ALWAYS_SHOW": "false",
    "MODULEBOX_BLOG_AMOUNT": "3",
    "MODULEBOX_PRODUCT_CATEGORIES_LEVELS": "0",
    "MODULEBOX_PRODUCT_CATEGORIES_SHOW_BRAND": "true",
    "MODULEBOX_TOPTEN_COUNT": "1",
    "MODULEBOX_TOPTEN_SHOW_NEW": "false",
    "MODULEBOX_TOPTEN_SHOW_BOUGHT": "false",
    "MODULEBOX_TOPTEN_SHOW_OFFERS": "false",
    "MODULEBOX_NEWS_AMOUNT": "3",
    "SETTINGS_THUMBNAIL_QUALITY": "85",
    "SETTINGS_SHOW_CART_ICONS_FOOTER": "true",
    "SETTINGS_SHOW_BIG_CART_ICONS_FOOTER": "true",
    "EMAIL_CONTACT_INFORMATION": "BOTTOM",
    "EMAIL_SOCIAL": "false",
    "EMAIL_COLOR_BACKGROUND": "#CFE0E4",
    "EMAIL_COLOR_LINKS": "#5AC5DE",
    "EMAIL_FOOTER_COLOR_BACKGROUND": "#757575",
    "EMAIL_FOOTER_COLOR": "#FFFFFF",
    "EMAIL_FONT_FAMILY_BASE": "'Helvetica Neue', sans-serif",
    "EMAIL_FONT_FAMILY_HEADLINE": "'Helvetica Neue', 'Helvetica', 'Arial', sans-serif",
    "BUNDLE_VERSION": "2.0.0"
}
